{
  "data": [
    {
      "id": 101,
      "title": "Article 1",
      "author": {
        "id": 1,
        "name": "Author One",
        "email": "author1@example.com"
      },
      "tags": ["tech", "programming"],
      "published_at": "2024-01-15T10:00:00Z",
      "views": 1250
    },
    {
      "id": 102,
      "title": "Article 2",
      "author": {
        "id": 2,
        "name": "Author Two",
        "email": "author2@example.com"
      },
      "tags": ["design", "ui"],
      "published_at": "2024-01-16T11:00:00Z",
      "views": 890
    },
    {
      "id": 103,
      "title": "Article 3",
      "author": {
        "id": 1,
        "name": "Author One",
        "email": "author1@example.com"
      },
      "tags": ["tech", "ai"],
      "published_at": "2024-01-17T12:00:00Z",
      "views": 2100
    }
  ],
  "pagination": {
    "page": 1,
    "per_page": 10,
    "total": 100,
    "has_more": true
  }
}
